Homework 6
…
Exercise 7

The highest roc_auc is 0.7399677

collect_metrics(tune_res)%>%
  arrange(desc(mean))

## # A tibble: 192 x 9
##     mtry trees min_n .metric .estimator  mean     n std_err .config             
##    <int> <int> <int> <chr>   <chr>      <dbl> <int>   <dbl> <chr>               
##  1     5   871     1 roc_auc hand_till  0.740     5 0.00933 Preprocessor1_Model~
##  2     6   614     2 roc_auc hand_till  0.740     5 0.00994 Preprocessor1_Model~
##  3     5   742     3 roc_auc hand_till  0.739     5 0.0108  Preprocessor1_Model~
##  4     6  1000     1 roc_auc hand_till  0.739     5 0.00814 Preprocessor1_Model~
##  5     6   614     3 roc_auc hand_till  0.739     5 0.0119  Preprocessor1_Model~
##  6     6   742     2 roc_auc hand_till  0.739     5 0.00896 Preprocessor1_Model~
##  7     5   228     2 roc_auc hand_till  0.739     5 0.0102  Preprocessor1_Model~
##  8     5   485     1 roc_auc hand_till  0.739     5 0.00965 Preprocessor1_Model~
##  9     6   485     2 roc_auc hand_till  0.738     5 0.00668 Preprocessor1_Model~
## 10     4   228     1 roc_auc hand_till  0.738     5 0.0115  Preprocessor1_Model~
## # ... with 182 more rows
…
